quickReg
…
# or subgroup combination analysis
reg_7<-reg(data = diabetes, x = c("age","CFHrs1061170"), y =c("systolic","diastolic") ,cov=c("CFBrs641153","CFHrs2230199"), model = 'lm',group=c("sex","smoking"),group_combine = TRUE)
reg_7

## # A tibble: 24 × 13
##      sex smoking y      x     term  estimate std.error statistic  p.value   coef
##    <dbl>   <dbl> <chr>  <chr> <chr>    <dbl>     <dbl>     <dbl>    <dbl>  <dbl>
##  1     0       0 systo… age   age     0.566     0.0730    7.74   2.30e-13 0.566 
##  2     0       0 systo… CFHr… CFHr…   0.0370    1.40      0.0265 9.79e- 1 0.0370
##  3     0       0 diast… age   age     0.0525    0.0515    1.02   3.09e- 1 0.0525
##  4     0       0 diast… CFHr… CFHr…   0.0128    0.886     0.0144 9.89e- 1 0.0128
##  5     0       1 systo… age   age     0.706     0.0759    9.30   5.64e-18 0.706 
##  6     0       1 systo… CFHr… CFHr…   2.03      1.69      1.20   2.32e- 1 2.03  
##  7     0       1 diast… age   age     0.206     0.0481    4.28   2.62e- 5 0.206 
##  8     0       1 diast… CFHr… CFHr…   0.428     0.964     0.444  6.58e- 1 0.428 
##  9     0      NA systo… age   age     0.819     0.201     4.07   2.14e- 4 0.819 
## 10     0      NA systo… CFHr… CFHr…   2.32      4.56      0.508  6.14e- 1 2.32  
## # … with 14 more rows, and 3 more variables: coef.low <dbl>, coef.high <dbl>,
## #   N <dbl>
…
